{
	"info": {
		"_postman_id": "a780357b-3ffd-4212-9e2e-43dec4cfca4f",
		"name": "ITTI - Optima",
		"schema": "https://schema.getpostman.com/json/collection/v2.1.0/collection.json"
	},
	"item": [
		{
			"name": "https://localhost:18777/api/WZ",
			"request": {
				"method": "POST",
				"header": [
					{
						"key": "Content-Type",
						"name": "Content-Type",
						"value": "application/json",
						"type": "text"
					},
					{
						"key": "apikey",
						"value": "1D546D4F8DBA449594F6A3BAED8540A1",
						"type": "text"
					}
				],
				"body": {
					"mode": "raw",
					"raw": "{\r\n  \"ExportKod\": \"WZ\",\r\n  \"DataDok\": \"2019-11-04T10:25:43.782Z\",\r\n  \"CzyZapisBufor\": 1,\r\n  \"MagazynZrodlowy\": \"MAGAZYN\",\r\n  \"KodPlatnika\": \"TESTOWY_KONTAHENT\",\r\n  \"KodDostawcy\": \"TESTOWY_KONTAHENT\",\r\n  \"KodOdbiorcy\": \"TESTOWY_KONTAHENT\",\r\n  \"PozycjeDokumentuImportowanego\": [\r\n    {\r\n      \"Lp\": \"1\",\r\n      \"Ilosc\": 10,\r\n      \"CenaNetto\": 10,\r\n      \"CenaBrutto\": 10,\r\n      \"KosztWlasny\":20,\r\n      \"TowarKod\": \"TOWAR-PZ\",\r\n      \"JM\": \"szt\",\r\n      \"Stawka\": 1,\r\n      \"Flaga\": 0,\r\n      \"Netto\": 10,\r\n      \"Brutto\": 10\r\n    }\r\n  ]\r\n}",
					"options": {
						"raw": {
							"language": "json"
						}
					}
				},
				"url": {
					"raw": "http://localhost:18777/api/WZ",
					"protocol": "http",
					"host": [
						"localhost"
					],
					"port": "18777",
					"path": [
						"api",
						"WZ"
					]
				}
			},
			"response": []
		},
		{
			"name": "http://localhost:18777/api/PZ",
			"request": {
				"method": "POST",
				"header": [
					{
						"key": "Content-Type",
						"name": "Content-Type",
						"value": "application/json",
						"type": "text"
					},
					{
						"key": "apikey",
						"value": "1D546D4F8DBA449594F6A3BAED8540A1",
						"type": "text"
					}
				],
				"body": {
					"mode": "raw",
					"raw": "{\r\n  \"ExportKod\": \"PZ\",\r\n  \"DataDok\": \"2019-11-07T10:25:43.782Z\",\r\n  \"CzyZapisBufor\": 1,\r\n  \"MagazynZrodlowy\": \"MAGAZYN\",\r\n  \"KodPlatnika\": \"TESTOWY_KONTAHENT\",\r\n  \"KodDostawcy\": \"TESTOWY_KONTAHENT\",\r\n  \"KodOdbiorcy\": \"TESTOWY_KONTAHENT\",\r\n  \"NumerObcy\":\"Nr obcy 1234\",\r\n  \"PozycjeDokumentuImportowanego\": [\r\n    {\r\n      \"Lp\": \"1\",\r\n      \"Ilosc\": 10,\r\n      \"CenaNetto\": 10,\r\n      \"TowarKod\": \"TOWAR-PZ\",\r\n      \"JM\": \"szt\",\r\n      \"Stawka\": 1,\r\n      \"Flaga\": 0\r\n    }\r\n  ]\r\n}"
				},
				"url": {
					"raw": "http://localhost:18777/api/PZ",
					"protocol": "http",
					"host": [
						"localhost"
					],
					"port": "18777",
					"path": [
						"api",
						"PZ"
					]
				}
			},
			"response": []
		},
		{
			"name": "https://localhost:18777/api/RW",
			"request": {
				"method": "POST",
				"header": [
					{
						"key": "Content-Type",
						"name": "Content-Type",
						"type": "text",
						"value": "application/json"
					},
					{
						"key": "apikey",
						"type": "text",
						"value": "1D546D4F8DBA449594F6A3BAED8540A1"
					}
				],
				"body": {
					"mode": "raw",
					"raw": "{\r\n  \"ExportKod\": \"RW\",\r\n  \"DataDok\": \"2019-11-07T10:25:43.782Z\",\r\n  \"CzyZapisBufor\": 1,\r\n  \"MagazynZrodlowy\": \"MAGAZYN\",\r\n  \"KodPlatnika\": \"TESTOWY_KONTAHENT\",\r\n  \"KodDostawcy\": \"TESTOWY_KONTAHENT\",\r\n  \"KodOdbiorcy\": \"TESTOWY_KONTAHENT\",\r\n  \"PozycjeDokumentuImportowanego\": [\r\n    {\r\n      \"Lp\": \"1\",\r\n      \"Ilosc\": 10,\r\n      \"CenaNetto\": 10,\r\n      \"CenaBrutto\": 10,\r\n      \"KosztWlasny\":20,\r\n      \"TowarKod\": \"TOWAR-PZ\",\r\n      \"JM\": \"szt\",\r\n      \"Stawka\": 1,\r\n      \"Flaga\": 0,\r\n      \"Netto\": 10,\r\n      \"Brutto\": 10\r\n    }\r\n  ]\r\n}",
					"options": {
						"raw": {
							"language": "json"
						}
					}
				},
				"url": {
					"raw": "http://localhost:18777/api/RW",
					"protocol": "http",
					"host": [
						"localhost"
					],
					"port": "18777",
					"path": [
						"api",
						"RW"
					]
				}
			},
			"response": []
		},
		{
			"name": "http://localhost:18777/api/PW",
			"request": {
				"method": "POST",
				"header": [
					{
						"key": "Content-Type",
						"name": "Content-Type",
						"value": "application/json",
						"type": "text"
					},
					{
						"key": "apikey",
						"value": "1D546D4F8DBA449594F6A3BAED8540A1",
						"type": "text"
					}
				],
				"body": {
					"mode": "raw",
					"raw": "{\r\n  \"ExportKod\": \"PW\",\r\n  \"DataDok\": \"2019-11-07T10:25:43.782Z\",\r\n  \"CzyZapisBufor\": 1,\r\n  \"MagazynZrodlowy\": \"MAGAZYN\",\r\n  \"PozycjeDokumentuImportowanego\": [\r\n    {\r\n      \"Lp\": \"1\",\r\n      \"Ilosc\": 10,\r\n      \"CenaNetto\": 10,\r\n      \"CenaBrutto\": 10,\r\n      \"TowarKod\": \"TOWAR-PZ\",\r\n      \"KosztWlasny\":30,\r\n      \"JM\": \"szt\",\r\n      \"Stawka\": 1,\r\n      \"Flaga\": 0,\r\n      \"Netto\": 10,\r\n      \"Brutto\": 10\r\n    }\r\n  ]\r\n}"
				},
				"url": {
					"raw": "http://localhost:18777/api/PW",
					"protocol": "http",
					"host": [
						"localhost"
					],
					"port": "18777",
					"path": [
						"api",
						"PW"
					]
				}
			},
			"response": []
		},
		{
			"name": "http://localhost:18777/api/FS",
			"request": {
				"method": "POST",
				"header": [
					{
						"key": "Content-Type",
						"name": "Content-Type",
						"type": "text",
						"value": "application/json"
					},
					{
						"key": "apikey",
						"type": "text",
						"value": "1D546D4F8DBA449594F6A3BAED8540A1"
					}
				],
				"body": {
					"mode": "raw",
					"raw": "{\r\n  \"ExportKod\": \"FS\",\r\n  \"DataDok\": \"2019-11-07T10:25:43.782Z\",\r\n  \"CzyZapisBufor\": 1,\r\n  \"MagazynZrodlowy\": \"MAGAZYN\",\r\n  \"KodPlatnika\": \"TESTOWY_KONTAHENT\",\r\n  \"KodDostawcy\": \"TESTOWY_KONTAHENT\",\r\n  \"KodOdbiorcy\": \"TESTOWY_KONTAHENT\",\r\n  \"NumerObcy\":\"Nr obcy 1234\",\r\n  \"PozycjeDokumentuImportowanego\": [\r\n    {\r\n      \"Lp\": \"1\",\r\n      \"Ilosc\": 10,\r\n      \"CenaNetto\": 10,\r\n      \"CenaBrutto\": 10,\r\n      \"CenaNettoRabat\": 10,\r\n      \"TowarKod\": \"TOWAR-PZ\",\r\n      \"JM\": \"szt\",\r\n      \"Stawka\": 1,\r\n      \"Flaga\": 0\r\n    }\r\n  ]\r\n}"
				},
				"url": {
					"raw": "http://localhost:18777/api/FS",
					"protocol": "http",
					"host": [
						"localhost"
					],
					"port": "18777",
					"path": [
						"api",
						"FS"
					]
				}
			},
			"response": []
		},
		{
			"name": "http://localhost:18777/api/FZ",
			"request": {
				"method": "POST",
				"header": [
					{
						"key": "Content-Type",
						"name": "Content-Type",
						"value": "application/json",
						"type": "text"
					},
					{
						"key": "apikey",
						"value": "1D546D4F8DBA449594F6A3BAED8540A1",
						"type": "text"
					}
				],
				"body": {
					"mode": "raw",
					"raw": "{\r\n  \"ExportKod\": \"FZ\",\r\n  \"DataDok\": \"2019-11-07T10:25:43.782Z\",\r\n  \"CzyZapisBufor\": 1,\r\n  \"MagazynZrodlowy\": \"MAGAZYN\",\r\n  \"KodPlatnika\": \"TESTOWY_KONTAHENT\",\r\n  \"KodDostawcy\": \"TESTOWY_KONTAHENT\",\r\n  \"KodOdbiorcy\": \"TESTOWY_KONTAHENT\",\r\n  \"NumerObcy\":\"Nr obcy 1234\",\r\n  \"PozycjeDokumentuImportowanego\": [\r\n    {\r\n      \"Lp\": \"1\",\r\n      \"Ilosc\": 10,\r\n      \"CenaNetto\": 10,\r\n      \"TowarKod\": \"TOWAR-PZ\",\r\n      \"JM\": \"szt\",\r\n      \"Stawka\": 1,\r\n      \"Flaga\": 0\r\n    }\r\n  ]\r\n}"
				},
				"url": {
					"raw": "http://localhost:18777/api/FZ",
					"protocol": "http",
					"host": [
						"localhost"
					],
					"port": "18777",
					"path": [
						"api",
						"FZ"
					]
				}
			},
			"response": []
		},
		{
			"name": "https://localhost:18777/api/MM",
			"request": {
				"method": "POST",
				"header": [
					{
						"key": "Content-Type",
						"name": "Content-Type",
						"type": "text",
						"value": "application/json"
					},
					{
						"key": "apikey",
						"type": "text",
						"value": "1D546D4F8DBA449594F6A3BAED8540A1"
					}
				],
				"body": {
					"mode": "raw",
					"raw": "{\r\n  \"ExportKod\": \"MM\",\r\n  \"DataDok\": \"2019-11-07T10:25:43.782Z\",\r\n  \"MagazynZrodlowy\": \"MAGAZYN\",\r\n  \"MagazynDocelowy\": \"MAGAZYN_DOCELOWY\",\r\n  \"KodPlatnika\": \"TESTOWY_KONTAHENT\",\r\n  \"KodDostawcy\": \"TESTOWY_KONTAHENT\",\r\n  \"KodOdbiorcy\": \"TESTOWY_KONTAHENT\",\r\n  \"PozycjeDokumentuImportowanego\": [\r\n    {\r\n      \"Lp\": \"1\",\r\n      \"Ilosc\": 10,\r\n      \"CenaNetto\": 10,\r\n      \"TowarKod\": \"TOWAR-PZ\",\r\n      \"JM\": \"szt\",\r\n      \"Stawka\": 1,\r\n      \"Flaga\": 0\r\n    }\r\n  ]\r\n}",
					"options": {
						"raw": {
							"language": "json"
						}
					}
				},
				"url": {
					"raw": "http://localhost:18777/api/MM",
					"protocol": "http",
					"host": [
						"localhost"
					],
					"port": "18777",
					"path": [
						"api",
						"MM"
					]
				}
			},
			"response": []
		},
		{
			"name": "http://localhost:18777/api/ListaKontrahentow",
			"request": {
				"method": "GET",
				"header": [
					{
						"key": "Content-Type",
						"name": "Content-Type",
						"value": "application/json",
						"type": "text"
					},
					{
						"key": "apikey",
						"value": "1D546D4F8DBA449594F6A3BAED8540A1",
						"type": "text"
					}
				],
				"url": {
					"raw": "http://localhost:18777/api/ListaKontrahentow",
					"protocol": "http",
					"host": [
						"localhost"
					],
					"port": "18777",
					"path": [
						"api",
						"ListaKontrahentow"
					]
				}
			},
			"response": []
		},
		{
			"name": "https://localhost:18777/api//ListaKontrahentowPoDacie",
			"request": {
				"method": "GET",
				"header": [
					{
						"key": "Content-Type",
						"name": "Content-Type",
						"value": "application/json",
						"type": "text"
					},
					{
						"key": "apikey",
						"value": "1D546D4F8DBA449594F6A3BAED8540A1",
						"type": "text"
					}
				],
				"url": {
					"raw": "http://localhost:18777/api/ListaKontrahentowPoDacie?data=2019-09-01",
					"protocol": "http",
					"host": [
						"localhost"
					],
					"port": "18777",
					"path": [
						"api",
						"ListaKontrahentowPoDacie"
					],
					"query": [
						{
							"key": "data",
							"value": "2019-09-01"
						}
					]
				}
			},
			"response": []
		},
		{
			"name": "https://localhost:18777/api/ListaDokumentow",
			"request": {
				"method": "GET",
				"header": [
					{
						"key": "Content-Type",
						"name": "Content-Type",
						"type": "text",
						"value": "application/json"
					},
					{
						"key": "apikey",
						"type": "text",
						"value": "1D546D4F8DBA449594F6A3BAED8540A1"
					}
				],
				"url": {
					"raw": "http://localhost:18777/api/ListaDokumentow",
					"protocol": "http",
					"host": [
						"localhost"
					],
					"port": "18777",
					"path": [
						"api",
						"ListaDokumentow"
					]
				}
			},
			"response": []
		},
		{
			"name": "http://localhost:18777/api//api/Anuluj",
			"request": {
				"method": "PUT",
				"header": [
					{
						"key": "Content-Type",
						"name": "Content-Type",
						"type": "text",
						"value": "application/json"
					},
					{
						"key": "apikey",
						"type": "text",
						"value": "1D546D4F8DBA449594F6A3BAED8540A1"
					}
				],
				"url": {
					"raw": "http://localhost:18777/api/Anuluj?numerPelnyDokumentu=PZ/1133/2019",
					"protocol": "http",
					"host": [
						"localhost"
					],
					"port": "18777",
					"path": [
						"api",
						"Anuluj"
					],
					"query": [
						{
							"key": "numerPelnyDokumentu",
							"value": "PZ/1133/2019"
						}
					]
				}
			},
			"response": []
		},
		{
			"name": "http://localhost:11877/api/ListaZasobow",
			"request": {
				"method": "GET",
				"header": [
					{
						"key": "Content-Type",
						"name": "Content-Type",
						"type": "text",
						"value": "application/json"
					},
					{
						"key": "apikey",
						"type": "text",
						"value": "1D546D4F8DBA449594F6A3BAED8540A1"
					},
					{
						"key": "",
						"value": "",
						"type": "text",
						"disabled": true
					}
				],
				"url": {
					"raw": "http://localhost:18777/api/ListaZasobow?data=2019-04-10&kodTowaru=TOWAR-PZ",
					"protocol": "http",
					"host": [
						"localhost"
					],
					"port": "18777",
					"path": [
						"api",
						"ListaZasobow"
					],
					"query": [
						{
							"key": "data",
							"value": "2019-04-10"
						},
						{
							"key": "kodTowaru",
							"value": "TOWAR-PZ"
						}
					]
				}
			},
			"response": []
		},
		{
			"name": "http://localhost:18777/api/ListaTowarow",
			"request": {
				"method": "GET",
				"header": [
					{
						"key": "Content-Type",
						"name": "Content-Type",
						"type": "text",
						"value": "application/json"
					},
					{
						"key": "apikey",
						"type": "text",
						"value": "1D546D4F8DBA449594F6A3BAED8540A1"
					},
					{
						"key": "",
						"value": "",
						"type": "text",
						"disabled": true
					}
				],
				"url": {
					"raw": "http://localhost:18777/api/ListaTowarow?data=2019-09-10",
					"protocol": "http",
					"host": [
						"localhost"
					],
					"port": "18777",
					"path": [
						"api",
						"ListaTowarow"
					],
					"query": [
						{
							"key": "data",
							"value": "2019-09-10"
						}
					]
				}
			},
			"response": []
		},
		{
			"name": "https://localhost:11877/api/wydrukPdf",
			"request": {
				"method": "GET",
				"header": [
					{
						"key": "Content-Type",
						"name": "Content-Type",
						"type": "text",
						"value": "application/json"
					},
					{
						"key": "apikey",
						"type": "text",
						"value": "1D546D4F8DBA449594F6A3BAED8540A1"
					},
					{
						"key": "",
						"type": "text",
						"value": "",
						"disabled": true
					}
				],
				"url": {
					"raw": "http://localhost:18777/api/wydrukPdf?trnId=220",
					"protocol": "http",
					"host": [
						"localhost"
					],
					"port": "18777",
					"path": [
						"api",
						"wydrukPdf"
					],
					"query": [
						{
							"key": "trnId",
							"value": "220"
						}
					]
				}
			},
			"response": []
		},
		{
			"name": "http://localhost:11877/api/wydrukPdf - zły klucz",
			"request": {
				"method": "GET",
				"header": [
					{
						"key": "Content-Type",
						"name": "Content-Type",
						"type": "text",
						"value": "application/json"
					},
					{
						"key": "apikey",
						"type": "text",
						"value": "1D546D4F8DBA449594F6A3BAED8540A1fff"
					},
					{
						"key": "",
						"type": "text",
						"value": "",
						"disabled": true
					}
				],
				"url": {
					"raw": "http://localhost:44350/api/wydrukPdf?trnId=220",
					"protocol": "http",
					"host": [
						"localhost"
					],
					"port": "44350",
					"path": [
						"api",
						"wydrukPdf"
					],
					"query": [
						{
							"key": "trnId",
							"value": "220"
						}
					]
				}
			},
			"response": []
		}
	]
}